Removed Member From Class: ClassName=RF Transceiver Breakout Board Member=R1
Removed Member From Class: ClassName=RF Transceiver Breakout Board Member=R2
Removed Member From Class: ClassName=RF Transceiver Breakout Board Member=R3
Removed Member From Class: ClassName=RF Transceiver Breakout Board Member=R4
Added Component: Designator=*(Double Split)
Add component. Clean all parameters for all variants
Added Component: Designator=*(Double Split)
Add component. Clean all parameters for all variants
Added Pin To Net: NetName=Net*_1 Pin=*-1
Added Pin To Net: NetName=Net*_1 Pin=*-1
Added Pin To Net: NetName=Net*_1 Pin=U1-3
Added Net: Name=Net*_1
Added Member To Class: ClassName=RF Transceiver Breakout Board Member=Component * Double Split
Added Member To Class: ClassName=RF Transceiver Breakout Board Member=Component * Double Split
