Change Component Designator: OldDesignator=R? NewDesignator=R1
Change Component Designator: OldDesignator=R? NewDesignator=R2
Change Component Designator: OldDesignator=R? NewDesignator=R3
Change Component Designator: OldDesignator=R? NewDesignator=R4
Added Member To Class: ClassName=RF Transceiver Breakout Board Member=Component R2 0
Added Member To Class: ClassName=RF Transceiver Breakout Board Member=Component R3 0
Added Member To Class: ClassName=RF Transceiver Breakout Board Member=Component R4 0
