<?xml version="1.0" encoding="UTF-8" standalone="no"?>
<!-- Created with Inkscape (http://www.inkscape.org/) -->

<svg
   xmlns:dc="http://purl.org/dc/elements/1.1/"
   xmlns:cc="http://creativecommons.org/ns#"
   xmlns:rdf="http://www.w3.org/1999/02/22-rdf-syntax-ns#"
   xmlns:svg="http://www.w3.org/2000/svg"
   xmlns="http://www.w3.org/2000/svg"
   xmlns:sodipodi="http://sodipodi.sourceforge.net/DTD/sodipodi-0.dtd"
   xmlns:inkscape="http://www.inkscape.org/namespaces/inkscape"
   width="210mm"
   height="297mm"
   viewBox="0 0 744.09448819 1052.3622047"
   id="svg2"
   version="1.1"
   inkscape:version="0.91 r13725"
   sodipodi:docname="paste.svg">
  <defs
     id="defs4" />
  <sodipodi:namedview
     id="base"
     pagecolor="#ffffff"
     bordercolor="#666666"
     borderopacity="1.0"
     inkscape:pageopacity="0.0"
     inkscape:pageshadow="2"
     inkscape:zoom="2.8"
     inkscape:cx="262.58534"
     inkscape:cy="592.33907"
     inkscape:document-units="px"
     inkscape:current-layer="layer1"
     showgrid="false"
     inkscape:window-width="1920"
     inkscape:window-height="1017"
     inkscape:window-x="-8"
     inkscape:window-y="-8"
     inkscape:window-maximized="1" />
  <metadata
     id="metadata7">
    <rdf:RDF>
      <cc:Work
         rdf:about="">
        <dc:format>image/svg+xml</dc:format>
        <dc:type
           rdf:resource="http://purl.org/dc/dcmitype/StillImage" />
        <dc:title />
      </cc:Work>
    </rdf:RDF>
  </metadata>
  <g
     inkscape:label="Layer 1"
     inkscape:groupmode="layer"
     id="layer1">
    <path
       style="fill:#000000"
       d="m 155.55484,512.38245 c 0.0113,-0.55802 0.83889,-0.70001 0.94194,-0.16162 0.0421,0.22021 -0.0581,0.28424 -0.44501,0.28424 -0.27468,0 -0.4983,-0.0552 -0.49693,-0.12262 z m 1.65345,-0.1635 c 0.0345,-0.18049 0.2031,-0.28612 0.45657,-0.28612 0.25347,0 0.42201,0.10563 0.45656,0.28612 0.0428,0.22355 -0.0571,0.28612 -0.45656,0.28612 -0.39951,0 -0.49936,-0.0626 -0.45657,-0.28612 z m 1.625,0 c 0.0345,-0.18049 0.2031,-0.28612 0.45657,-0.28612 0.25347,0 0.42202,0.10563 0.45656,0.28612 0.0428,0.22355 -0.0571,0.28612 -0.45656,0.28612 -0.39951,0 -0.49936,-0.0626 -0.45657,-0.28612 z m 1.62501,0 c 0.0345,-0.18049 0.20309,-0.28612 0.45656,-0.28612 0.25347,0 0.42202,0.10563 0.45657,0.28612 0.0428,0.22355 -0.0571,0.28612 -0.45657,0.28612 -0.39951,0 -0.49935,-0.0626 -0.45656,-0.28612 z m 1.62443,0 c 0.0298,-0.15737 0.21799,-0.30963 0.41817,-0.33836 0.27644,-0.0397 0.36397,0.0291 0.36397,0.28612 0,0.25449 -0.10365,0.33836 -0.41817,0.33836 -0.31057,0 -0.40422,-0.0736 -0.36397,-0.28612 z m -6.53136,-1.43179 c -0.17981,-0.21798 -0.1728,-0.30277 0.043,-0.51986 0.34848,-0.35062 0.80794,-0.15582 0.74129,0.31428 -0.0635,0.44781 -0.49183,0.56009 -0.78426,0.20558 z m 6.72226,0.001 c -0.13232,-0.34694 0.0486,-0.73573 0.34238,-0.73573 0.16817,0 0.24886,0.15903 0.24886,0.49049 0,0.52618 -0.41797,0.69955 -0.59124,0.24524 z m -5.0608,-1.83934 0.0458,-1.92108 2.03125,0 2.03125,0 0.0458,1.92108 0.0458,1.92109 -2.12282,0 -2.12282,0 0.0458,-1.92109 z m -1.72701,0.18399 c -0.13784,-0.36139 0.27949,-0.7936 0.63408,-0.65669 0.16496,0.0637 0.24778,0.24489 0.21573,0.47197 -0.0648,0.45912 -0.69308,0.59568 -0.84981,0.18472 z m 6.78781,0.0204 c -0.13232,-0.34694 0.0486,-0.73573 0.34238,-0.73573 0.16817,0 0.24886,0.15903 0.24886,0.49049 0,0.52618 -0.41797,0.69955 -0.59124,0.24524 z m -6.78781,-1.65535 c -0.13784,-0.36139 0.27949,-0.79359 0.63408,-0.65669 0.16496,0.0637 0.24778,0.24489 0.21573,0.47197 -0.0648,0.45912 -0.69308,0.59568 -0.84981,0.18472 z m 6.78781,0.0204 c -0.13232,-0.34695 0.0486,-0.73574 0.34238,-0.73574 0.16817,0 0.24886,0.15903 0.24886,0.49049 0,0.52618 -0.41797,0.69955 -0.59124,0.24525 z m -6.61574,-1.79369 c -0.11877,-0.31142 0.3209,-0.75378 0.63042,-0.63428 0.13147,0.0508 0.23904,0.26836 0.23904,0.48355 0,0.30367 -0.087,0.39124 -0.38886,0.39124 -0.21388,0 -0.43015,-0.10823 -0.4806,-0.24051 z m 1.56921,-0.0284 c -0.12123,-0.31786 0.35903,-0.73223 0.6973,-0.60163 0.12538,0.0484 0.22796,0.26408 0.22796,0.47927 0,0.30962 -0.0858,0.39124 -0.41135,0.39124 -0.23182,0 -0.45611,-0.11735 -0.51391,-0.26888 z m 1.62501,0 c -0.0629,-0.16496 0.0147,-0.35516 0.20083,-0.49209 0.25744,-0.1894 0.33863,-0.18774 0.53612,0.011 0.12801,0.12879 0.18848,0.35023 0.13437,0.49209 -0.12947,0.33945 -0.74061,0.33176 -0.87132,-0.011 z m 1.57525,-0.12236 c 0,-0.47401 0.35231,-0.6435 0.74186,-0.3569 0.39096,0.28763 0.18752,0.74814 -0.33051,0.74814 -0.32553,0 -0.41135,-0.0816 -0.41135,-0.39124 z m 1.625,-0.004 c 0,-0.21731 0.0914,-0.4272 0.20313,-0.46641 0.35821,-0.12571 0.60938,0.0681 0.60938,0.47028 0,0.30833 -0.0861,0.39125 -0.40625,0.39125 -0.32127,0 -0.40626,-0.0827 -0.40626,-0.39512 z"
       id="path3347"
       inkscape:connector-curvature="0" />
  </g>
</svg>
